"VMName","Hostname","IP Address","OS","Host","Status","CPU","RAM","Disk capacity GB","Disk datastore","ThinProvisioned","Disk Provision GB","Disk Used GB","HW Version","Tools Status"
"cp-template-cc295247-bf32-4362-bd1b-8dd6c2195b7c",,,,"esx-02.vmware.lab","poweredOff","1","4","128","esx-02-nvme","True","128.61","20.46","vmx-14","guestToolsNeedUpgrade"
"cp-replica-41af4321-cb2f-4eb0-921f-276946614ffb",,,,"esx-02.vmware.lab","poweredOff","1","4","128","esx-02-nvme","True","129.22","16.73","vmx-14","guestToolsNeedUpgrade"
"cp-parent-71322276-51b5-49f6-bc6d-99b35788e565",,,,"esx-02.vmware.lab","poweredOn","1","4","128","esx-02-nvme","True","127.96","16.93","vmx-14","guestToolsNeedUpgrade"
"bal-vm-2","bal-vm-2.vmware.lab","10.0.0.13","Microsoft Windows 10 (64-bit)","esx-02.vmware.lab","poweredOn","1","4","128","esx-02-nvme","True","126.96","18.65","vmx-14","guestToolsNeedUpgrade"
"bal-vm-1","bal-vm-1.vmware.lab","10.0.0.95","Microsoft Windows 10 (64-bit)","esx-02.vmware.lab","poweredOn","1","4","128","esx-02-nvme","True","126.27","18.66","vmx-14","guestToolsNeedUpgrade"
"VMware vCenter Server 7.0 (vcenter-01)","vcenter-01.vmware.lab","172.16.0.201,10.0.0.200","VMware Photon OS (64-bit)","esx-02.vmware.lab","poweredOn","2","14","48","esx-02-nvme","True","374.53","73.59","vmx-10","guestToolsUnmanaged"
"VMware vCenter Server 7.0 (vcenter-01)","vcenter-01.vmware.lab","172.16.0.201,10.0.0.200","VMware Photon OS (64-bit)","esx-02.vmware.lab","poweredOn","2","14","5.04","esx-02-nvme","True","374.53","73.59","vmx-10","guestToolsUnmanaged"
"VMware vCenter Server 7.0 (vcenter-01)","vcenter-01.vmware.lab","172.16.0.201,10.0.0.200","VMware Photon OS (64-bit)","esx-02.vmware.lab","poweredOn","2","14","25","esx-02-nvme","True","374.53","73.59","vmx-10","guestToolsUnmanaged"
"VMware vCenter Server 7.0 (vcenter-01)","vcenter-01.vmware.lab","172.16.0.201,10.0.0.200","VMware Photon OS (64-bit)","esx-02.vmware.lab","poweredOn","2","14","25","esx-02-nvme","True","374.53","73.59","vmx-10","guestToolsUnmanaged"
"VMware vCenter Server 7.0 (vcenter-01)","vcenter-01.vmware.lab","172.16.0.201,10.0.0.200","VMware Photon OS (64-bit)","esx-02.vmware.lab","poweredOn","2","14","10","esx-02-nvme","True","374.53","73.59","vmx-10","guestToolsUnmanaged"
"VMware vCenter Server 7.0 (vcenter-01)","vcenter-01.vmware.lab","172.16.0.201,10.0.0.200","VMware Photon OS (64-bit)","esx-02.vmware.lab","poweredOn","2","14","10","esx-02-nvme","True","374.53","73.59","vmx-10","guestToolsUnmanaged"
"VMware vCenter Server 7.0 (vcenter-01)","vcenter-01.vmware.lab","172.16.0.201,10.0.0.200","VMware Photon OS (64-bit)","esx-02.vmware.lab","poweredOn","2","14","15","esx-02-nvme","True","374.53","73.59","vmx-10","guestToolsUnmanaged"
"VMware vCenter Server 7.0 (vcenter-01)","vcenter-01.vmware.lab","172.16.0.201,10.0.0.200","VMware Photon OS (64-bit)","esx-02.vmware.lab","poweredOn","2","14","10","esx-02-nvme","True","374.53","73.59","vmx-10","guestToolsUnmanaged"
"VMware vCenter Server 7.0 (vcenter-01)","vcenter-01.vmware.lab","172.16.0.201,10.0.0.200","VMware Photon OS (64-bit)","esx-02.vmware.lab","poweredOn","2","14","1","esx-02-nvme","True","374.53","73.59","vmx-10","guestToolsUnmanaged"
"VMware vCenter Server 7.0 (vcenter-01)","vcenter-01.vmware.lab","172.16.0.201,10.0.0.200","VMware Photon OS (64-bit)","esx-02.vmware.lab","poweredOn","2","14","10","esx-02-nvme","True","374.53","73.59","vmx-10","guestToolsUnmanaged"
"VMware vCenter Server 7.0 (vcenter-01)","vcenter-01.vmware.lab","172.16.0.201,10.0.0.200","VMware Photon OS (64-bit)","esx-02.vmware.lab","poweredOn","2","14","10","esx-02-nvme","True","374.53","73.59","vmx-10","guestToolsUnmanaged"
"VMware vCenter Server 7.0 (vcenter-01)","vcenter-01.vmware.lab","172.16.0.201,10.0.0.200","VMware Photon OS (64-bit)","esx-02.vmware.lab","poweredOn","2","14","100","esx-02-nvme","True","374.53","73.59","vmx-10","guestToolsUnmanaged"
"VMware vCenter Server 7.0 (vcenter-01)","vcenter-01.vmware.lab","172.16.0.201,10.0.0.200","VMware Photon OS (64-bit)","esx-02.vmware.lab","poweredOn","2","14","50","esx-02-nvme","True","374.53","73.59","vmx-10","guestToolsUnmanaged"
"VMware vCenter Server 7.0 (vcenter-01)","vcenter-01.vmware.lab","172.16.0.201,10.0.0.200","VMware Photon OS (64-bit)","esx-02.vmware.lab","poweredOn","2","14","10","esx-02-nvme","True","374.53","73.59","vmx-10","guestToolsUnmanaged"
"VMware vCenter Server 7.0 (vcenter-01)","vcenter-01.vmware.lab","172.16.0.201,10.0.0.200","VMware Photon OS (64-bit)","esx-02.vmware.lab","poweredOn","2","14","5","esx-02-nvme","True","374.53","73.59","vmx-10","guestToolsUnmanaged"
"VMware vCenter Server 7.0 (vcenter-01)","vcenter-01.vmware.lab","172.16.0.201,10.0.0.200","VMware Photon OS (64-bit)","esx-02.vmware.lab","poweredOn","2","14","100","esx-02-nvme","True","374.53","73.59","vmx-10","guestToolsUnmanaged"
"bal-dc01","bal-dc01.vmware.lab","10.0.0.220","Microsoft Windows Server 2016 (64-bit)","esx-01.vmware.lab","poweredOn","1","4","128","esx-01-nvme","True","107.85","24.23","vmx-14","guestToolsCurrent"
"win10-00",,,,"esx-01.vmware.lab","poweredOff","1","4","128","esx-01-nvme","True","112.66","19.95","vmx-14","guestToolsNeedUpgrade"
"bal-hzn-conn-01","bal-hzn-conn-01.vmware.lab","10.0.0.222","Microsoft Windows Server 2016 (64-bit)","esx-01.vmware.lab","poweredOn","1","4","128","esx-01-nvme","True","100.67","31.4","vmx-14","guestToolsCurrent"
"bal-svr-01",,,,"esx-01.vmware.lab","poweredOff","1","4","128","esx-01-nvme","True","130.71","29.89","vmx-14","guestToolsCurrent"
"bal-svr-01",,,,"esx-01.vmware.lab","poweredOff","1","4","32","esx-01-nvme","True","130.71","29.89","vmx-14","guestToolsCurrent"
"vesx-01","vesx-01.vmware.lab",,,"esx-02.vmware.lab","poweredOff","2","6","32","esx-02-nvme","True","738.86","55.73","vmx-15","guestToolsUnmanaged"
"vesx-01","vesx-01.vmware.lab",,,"esx-02.vmware.lab","poweredOff","2","6","256","esx-02-nvme","True","738.86","55.73","vmx-15","guestToolsUnmanaged"
"vesx-01","vesx-01.vmware.lab",,,"esx-02.vmware.lab","poweredOff","2","6","500","esx-02-nvme","True","738.86","55.73","vmx-15","guestToolsUnmanaged"
"linux-00 (TCL)",,,,"esx-02.vmware.lab","poweredOff","1","0.05","1","esx-02-nvme","False","1.04","1","vmx-09","guestToolsNotInstalled"
"win10-01","win10-01.vmware.lab",,,"esx-02.vmware.lab","poweredOff","1","4","128","esx-02-nvme","True","128.61","17.22","vmx-14","guestToolsNeedUpgrade"
"win10-01a","win10-01a.vmware.lab","10.0.0.136","Microsoft Windows 10 (64-bit)","esx-02.vmware.lab","poweredOn","1","4","128","esx-02-nvme","True","126.19","22.29","vmx-14","guestToolsNeedUpgrade"
